{
  "project_info": {
    "project_number": "645863660547",
    "firebase_url": "https://anyservice-275412.firebaseio.com",
    "project_id": "anyservice-275412",
    "storage_bucket": "anyservice-275412.appspot.com"
  },
  "client": [
    {
      "client_info": {
        "mobilesdk_app_id": "1:645863660547:android:4684b1e4afac7b0f8a0236",
        "android_client_info": {
          "package_name": "com.anyservice.anyserviceui"
        }
      },
      "oauth_client": [
        {
          "client_id": "645863660547-60jmj2oispu0ostdhd509ko8lkpjc1e2.apps.googleusercontent.com",
          "client_type": 3
        }
      ],
      "api_key": [
        {
          "current_key": "AIzaSyA45TNynrP6HMEVEWciYKrH8JOLQNEqbps"
        }
      ],
      "services": {
        "appinvite_service": {
          "other_platform_oauth_client": [
            {
              "client_id": "645863660547-60jmj2oispu0ostdhd509ko8lkpjc1e2.apps.googleusercontent.com",
              "client_type": 3
            },
            {
              "client_id": "645863660547-plit648bqnfb8oaci5g1vsqj3ruta4s0.apps.googleusercontent.com",
              "client_type": 2,
              "ios_info": {
                "bundle_id": "com.anyservice.anyserviceui"
              }
            }
          ]
        }
      }
    }
  ],
  "configuration_version": "1"
}